{
	"count": 15597,
	"next": "https://rebrickable.com/api/v3/lego/sets/?key=314942f6edd0c3b65a8fd8e8c52a6715&ordering=-year%2C-set_num&page=3&page_size=15",
	"previous": "https://rebrickable.com/api/v3/lego/sets/?key=314942f6edd0c3b65a8fd8e8c52a6715&ordering=-year%2C-set_num&page_size=15",
	"results": [{
		"set_num": "854000-1",
		"name": "Friends Bag Charm",
		"year": 2020,
		"theme_id": 503,
		"num_parts": 0,
		"set_img_url": null,
		"set_url": "https://rebrickable.com/sets/854000-1/friends-bag-charm/",
		"last_modified_dt": "2020-01-22T08:08:32.343176Z"
	}, {
		"set_num": "853997-1",
		"name": "Lloyd Key Chain",
		"year": 2020,
		"theme_id": 503,
		"num_parts": 0,
		"set_img_url": null,
		"set_url": "https://rebrickable.com/sets/853997-1/lloyd-key-chain/",
		"last_modified_dt": "2019-12-22T10:54:22.731144Z"
	}, {
		"set_num": "853996-1",
		"name": "Jay Key Chain",
		"year": 2020,
		"theme_id": 503,
		"num_parts": 0,
		"set_img_url": null,
		"set_url": "https://rebrickable.com/sets/853996-1/jay-key-chain/",
		"last_modified_dt": "2019-12-22T10:55:09.864466Z"
	}, {
		"set_num": "853995-1",
		"name": "Crayon Girl Key Chain",
		"year": 2020,
		"theme_id": 503,
		"num_parts": 0,
		"set_img_url": null,
		"set_url": "https://rebrickable.com/sets/853995-1/crayon-girl-key-chain/",
		"last_modified_dt": "2020-01-22T08:09:08.833821Z"
	}, {
		"set_num": "853993-1",
		"name": "2 x 4 Bright Blue Key Chain",
		"year": 2020,
		"theme_id": 503,
		"num_parts": 0,
		"set_img_url": null,
		"set_url": "https://rebrickable.com/sets/853993-1/2-x-4-bright-blue-key-chain/",
		"last_modified_dt": "2020-01-22T08:04:30.132920Z"
	}, {
		"set_num": "853992-1",
		"name": "2 x 4 Black Metal Key Chain",
		"year": 2020,
		"theme_id": 503,
		"num_parts": 0,
		"set_img_url": null,
		"set_url": "https://rebrickable.com/sets/853992-1/2-x-4-black-metal-key-chain/",
		"last_modified_dt": "2020-01-22T08:04:03.125600Z"
	}, {
		"set_num": "853990-1",
		"name": "Easter Bunny House",
		"year": 2020,
		"theme_id": 229,
		"num_parts": 0,
		"set_img_url": null,
		"set_url": "https://rebrickable.com/sets/853990-1/easter-bunny-house/",
		"last_modified_dt": "2020-01-22T07:21:08.949431Z"
	}, {
		"set_num": "853986-1",
		"name": "Customizable Weapon Set",
		"year": 2020,
		"theme_id": 501,
		"num_parts": 0,
		"set_img_url": null,
		"set_url": "https://rebrickable.com/sets/853986-1/customizable-weapon-set/",
		"last_modified_dt": "2020-01-16T15:53:27.547725Z"
	}, {
		"set_num": "853985-1",
		"name": "Keytana",
		"year": 2020,
		"theme_id": 501,
		"num_parts": 0,
		"set_img_url": null,
		"set_url": "https://rebrickable.com/sets/853985-1/keytana/",
		"last_modified_dt": "2020-01-16T20:19:09.943502Z"
	}, {
		"set_num": "80105-1",
		"name": "Chinese New Year Temple Fair",
		"year": 2020,
		"theme_id": 686,
		"num_parts": 1664,
		"set_img_url": null,
		"set_url": "https://rebrickable.com/sets/80105-1/chinese-new-year-temple-fair/",
		"last_modified_dt": "2020-01-11T02:41:44.718296Z"
	}, {
		"set_num": "80104-1",
		"name": "Lion Dance",
		"year": 2020,
		"theme_id": 686,
		"num_parts": 882,
		"set_img_url": null,
		"set_url": "https://rebrickable.com/sets/80104-1/lion-dance/",
		"last_modified_dt": "2020-01-08T09:52:01.848927Z"
	}, {
		"set_num": "792005-1",
		"name": "Haunted Biker",
		"year": 2020,
		"theme_id": 676,
		"num_parts": 6,
		"set_img_url": null,
		"set_url": "https://rebrickable.com/sets/792005-1/haunted-biker/",
		"last_modified_dt": "2020-02-09T20:17:15.722282Z"
	}, {
		"set_num": "792004-1",
		"name": "El Fuego",
		"year": 2020,
		"theme_id": 676,
		"num_parts": 9,
		"set_img_url": null,
		"set_url": "https://rebrickable.com/sets/792004-1/el-fuego/",
		"last_modified_dt": "2020-01-24T18:11:57.704074Z"
	}, {
		"set_num": "76899-1",
		"name": "Lamborghini Urus ST-X & Lamborghini Huracán Super Trofeo EVO",
		"year": 2020,
		"theme_id": 601,
		"num_parts": 666,
		"set_img_url": null,
		"set_url": "https://rebrickable.com/sets/76899-1/lamborghini-urus-st-x-lamborghini-huracán-super-trofeo-evo/",
		"last_modified_dt": "2019-11-13T09:39:01.353919Z"
	}, {
		"set_num": "76898-1",
		"name": "Formula E Panasonic Jaguar Racing GEN2 car & Jaguar I-PACE eTROPHY",
		"year": 2020,
		"theme_id": 601,
		"num_parts": 571,
		"set_img_url": null,
		"set_url": "https://rebrickable.com/sets/76898-1/formula-e-panasonic-jaguar-racing-gen2-car-jaguar-i-pace-etrophy/",
		"last_modified_dt": "2019-11-13T09:39:49.463250Z"
	}]
}
